^G:\授業\PG\C-KADAI\KADAI16\KADAI16\DEBUG\FIGURE.OBJ|G:\授業\PG\C-KADAI\KADAI16\KADAI16\DEBUG\MAIN.OBJ|G:\授業\PG\C-KADAI\KADAI16\KADAI16\DEBUG\SQUARE.OBJ|G:\授業\PG\C-KADAI\KADAI16\KADAI16\DEBUG\TRIANGLE.OBJ
G:\授業\PG\C-KADAI\KADAI16\KADAI16\DEBUG\KADAI16.ILK
G:\授業\PG\C-KADAI\KADAI16\DEBUG\KADAI16.EXE
G:\授業\PG\C-KADAI\KADAI16\DEBUG\KADAI16.PDB
