^G:\授業\PG\C-KADAI\KADAI12\KADAI12\DEBUG\MAIN.OBJ|G:\授業\PG\C-KADAI\KADAI12\KADAI12\DEBUG\SAMPLE.OBJ
G:\授業\PG\C-KADAI\KADAI12\DEBUG\KADAI12.ILK
G:\授業\PG\C-KADAI\KADAI12\DEBUG\KADAI12.EXE
G:\授業\PG\C-KADAI\KADAI12\DEBUG\KADAI12.PDB
