^D:\GC2A18\PROJECT2\PROJECT2\MAIN.CPP|D:\GC2A18\PROJECT2\PROJECT2\TRIANGLECLASS.CPP
D:\GC2A18\PROJECT2\PROJECT2\DEBUG\VC142.PDB
D:\GC2A18\PROJECT2\PROJECT2\DEBUG\VC142.IDB
D:\GC2A18\PROJECT2\PROJECT2\DEBUG\TRIANGLECLASS.OBJ
D:\GC2A18\PROJECT2\PROJECT2\DEBUG\MAIN.OBJ
^D:\GC2A18\PROJECT2\PROJECT2\MAIN.CPP
D:\GC2A18\PROJECT2\PROJECT2\DEBUG\VC142.PDB
^D:\GC2A18\PROJECT2\PROJECT2\TRIANGLECLASS.CPP
D:\GC2A18\PROJECT2\PROJECT2\DEBUG\VC142.PDB
