^G:\授業\PG\C-KADAI\KADAI8\KADAI8\MAIN.CPP|G:\授業\PG\C-KADAI\KADAI8\KADAI8\STATUS.CPP
G:\授業\PG\C-KADAI\KADAI8\KADAI8\DEBUG\VC142.PDB
G:\授業\PG\C-KADAI\KADAI8\KADAI8\DEBUG\VC142.IDB
G:\授業\PG\C-KADAI\KADAI8\KADAI8\DEBUG\STATUS.OBJ
^G:\授業\PG\C-KADAI\KADAI8\KADAI8\STATUS.CPP
G:\授業\PG\C-KADAI\KADAI8\KADAI8\DEBUG\STATUS.OBJ
